{
  "artifactGenerations" : [ ],
  "artifactId" : "example1",
  "groupId" : "org.finos.legend.teset",
  "metamodelDependencies" : [ ],
  "projectDependencies" : [ ],
  "projectId" : "OMNIBUS-46516785",
  "projectStructureVersion" : {
    "extensionVersion" : 1,
    "version" : 13
  }
}